{
	"dialog":
		[	
			{
				"scene": "dialogue ensemble", "timelineDialogMin": 0, "timelineDialogMax": 144, "timecode": 147, "audioTrack": "dial_intro"
			},
			{
				"scene": "dialogue solo hugo", "timelineDialogMin": 147, "timelineDialogMax": 320, "audioTrack": "dial_intro"
			},
			{
				"scene": "dialogue solo charles", "timelineDialogMin": 362, "timelineDialogMax": 538, "audioTrack": "dial_intro"
			}
		],
	"part":
		[	
			{
				"transition": {"scene": "livreur hoverboard", "timelineMin": 0, "timelineMax": 25, "timecode": 790, "audioTrack": "variation_old_school1" },
				"marker":
					[
						{ "timecode": 830 },
						{ "timecode": 860 },
						{ "timecode": 830, "videoPlaybackRate": 0.8, "audioPlaybackRate": 0.8 },
						{ "timecode": 815, "videoPlaybackRate": 1.2, "audioPlaybackRate": 1.2 },
						{ "timecode": 895 }
					]
			},
			{
				"transition": {"scene": "chute de l'hoverboard", "timelineMin": 25, "timelineMax": 50, "timecode": 1618, "audioTrack": "theme_v3" },
				"marker":
					[
						{ "scene": "chute n°2", "timecode": 1652 },
						{ "timecode": 1680 },
						{ "timecode": 1556 },
						{ "scene": "sonnerie au portail", "timecode": 1593 },
						{ "timecode": 1689, "videoPlaybackRate": 1.3, "audioPlaybackRate": 1.3 },
						{ "timecode": 1617 }
					]
			},
			{
				"transition": {"scene": "visuels shisha", "timelineMin": 50, "timelineMax": 75, "timecode": 768, "audioTrack": "variation_trance" },
				"marker":
					[
						{ "scene": "posters chambre", "timecode": 1029 },
						{ "timecode": 1118 },
						{ "scene": "regard de Charles", "timecode": 1100 },
						{ "scene": "atmosphère paquets", "timecode": 1068 },
						{ "timecode": 1080, "videoPlaybackRate": 0.7, "audioPlaybackRate": 0.7 },
						{ "timecode": 1085 },
						{ "timecode": 768 }
					]
			},
			{
				"transition": {"timelineMin": 75, "timelineMax": 100, "timecode": 1080, "audioTrack": "variation_trance" },
				"marker":
					[
						{ "scene": "boîte avec musique de l'angoisse", "timecode": 1167 },
						{ "timecode": 1260 },
						{ "scene": "mains du livreur", "timecode": 1228, "videoPlaybackRate": 0.6, "audioPlaybackRate": 0.6 },
						{ "scene": "regard du livreur", "timecode": 1260 },
						{ "timecode": 1089 }
					]
			},
			{
				"transition": {"timelineMin": 100, "timelineMax": 125, "timecode": 1353, "audioTrack": "trance_to_dark" },
				"marker":
					[
						{ "timecode": 830 },
						{ "timecode": 860 },
						{ "timecode": 800, "videoPlaybackRate": 1.4, "audioPlaybackRate": 1.4 },
						{ "timecode": 800 },
						{ "timecode": 895 }
					]
			},
			{
				"transition": {"timelineMin": 125, "timelineMax": 150, "timecode": 1430, "audioTrack": "trance_to_dark" },
				"marker":
					[
						{ "timecode": 1460 },
						{ "timecode": 1490 },
						{ "timecode": 1510 },
						{ "timecode": 1260 }
					]
			}
		],
	"auto":
		[	
			{
				"scene": "retour à la conversation", "timelineAutoMax": 150, "timecode": 1210, "audioTrack": "trance_to_dark", "videoPlaybackRate": 0.8, "audioPlaybackRate": 0.8
			},
			{
				"scene": "emballage", "timelineAutoMax": 165, "timecode": 551
			},
			{
				"scene": "carton zoom", "timelineAutoMax": 186, "timecode": 740
			},
			{
				"scene": "crédits", "timelineAutoMax": 232, "timecode": 1728, "audioTrack": "dial_solo_hugo"
			}
		],
	"random":
		[	
			{
				"timecode": 645, "audioTrack": "variation_old_school1"
			},
			{
				"timecode": "random", "audioTrack": "variation_old_school_v2", "videoPlaybackRate": 1.25, "audioPlaybackRate": 1.25
			},
			{
				"timecode": "random", "audioTrack": "theme_v3", "videoPlaybackRate": 1.0, "audioPlaybackRate": 1.0
			},
			{
				"timecode": "random", "audioTrack": "variation_trance", "videoPlaybackRate": 0.75, "audioPlaybackRate": 0.75
			},
			{
				"timecode": "random", "audioTrack": "trance_to_dark", "videoPlaybackRate": 0.25, "audioPlaybackRate": 0.25
			},
			{
				"timecode": "random", "audioTrack": "theme_v3", "videoPlaybackRate": 3.0, "audioPlaybackRate": 3.0
			},
			{
				"timecode": "random", "audioTrack": "variation_trance", "videoPlaybackRate": 0.5, "audioPlaybackRate": 0.5
			},
			{
				"timecode": "random", "audioTrack": "variation_trance", "videoPlaybackRate": 1.5, "audioPlaybackRate": 1.5
			},
			{
				"timecode": "random", "audioTrack": "trance_to_dark", "videoPlaybackRate": 1.75, "audioPlaybackRate": 1.75
			},
			{
				"timecode": "random", "audioTrack": "trance_to_dark", "videoPlaybackRate": 2.0, "audioPlaybackRate": 2.0
			}
		]				
}

